<!-- Generator: Adobe Illustrator 19.0.0, SVG Export Plug-In  -->
<svg version="1.1"
	 xmlns="http://www.w3.org/2000/svg" xmlns:xlink="http://www.w3.org/1999/xlink" xmlns:a="http://ns.adobe.com/AdobeSVGViewerExtensions/3.0/"
	 x="0px" y="0px" width="19px" height="19px" viewBox="0 0 19 19" style="enable-background:new 0 0 19 19;" xml:space="preserve">
<style type="text/css">
	.st0{fill:none;stroke:#000000;stroke-linecap:round;stroke-linejoin:round;stroke-miterlimit:10;}
</style>
<defs>
</defs>
<path class="st0" d="M17.6,15.8c0.6-0.6,0.9-1.4,0.9-2.3c0-2.2-2.2-4-5-4s-5,1.8-5,4c0,2.2,2.2,4,5,4c0.8,0,1.5-0.2,2.2-0.4l2.8,1.4
	L17.6,15.8z"/>
<path class="st0" d="M13.5,9.5c1.5,0,2.9,0.6,3.8,1.5c0.7-1,1.2-2.2,1.2-3.5c0-3.9-4-7-9-7s-9,3.1-9,7c0,1.6,0.7,3.1,1.9,4.3
	l-0.9,2.7l2.7-1.4c1.3,0.7,2.8,1.2,4.5,1.3c-0.1-0.3-0.2-0.6-0.2-0.9C8.5,11.3,10.7,9.5,13.5,9.5z"/>
</svg>