<svg xmlns="http://www.w3.org/2000/svg" xmlns:xlink="http://www.w3.org/1999/xlink" preserveAspectRatio="xMidYMid" width="17.969" height="18" viewBox="0 0 17.969 18">
  <defs>
    <style>
      .cls-1 {
        fill: #0081ff;
        fill-rule: evenodd;
      }
    </style>
  </defs>
  <path d="M8.982,17.986 C4.021,17.986 -0.015,13.949 -0.015,8.987 C-0.015,4.026 4.021,-0.010 8.982,-0.010 C13.944,-0.010 17.982,4.026 17.982,8.987 C17.982,13.949 13.944,17.986 8.982,17.986 ZM8.982,0.747 C4.438,0.747 0.742,4.443 0.742,8.987 C0.742,13.531 4.438,17.228 8.982,17.228 C13.527,17.228 17.224,13.531 17.224,8.987 C17.224,4.443 13.527,0.747 8.982,0.747 ZM8.052,12.626 C7.980,12.715 7.871,12.768 7.756,12.768 C7.641,12.768 7.532,12.715 7.460,12.626 L4.947,9.484 C4.817,9.320 4.843,9.082 5.006,8.951 C5.170,8.821 5.408,8.848 5.539,9.010 L7.756,11.783 L12.871,5.387 C13.002,5.225 13.239,5.198 13.403,5.328 C13.566,5.459 13.593,5.697 13.462,5.860 L8.052,12.626 Z" class="cls-1"/>
</svg>
