<!-- Generator: Adobe Illustrator 19.0.0, SVG Export Plug-In  -->
<svg version="1.1"
	 xmlns="http://www.w3.org/2000/svg" xmlns:xlink="http://www.w3.org/1999/xlink" xmlns:a="http://ns.adobe.com/AdobeSVGViewerExtensions/3.0/"
	 x="0px" y="0px" width="16.9px" height="16.9px" viewBox="0 0 16.9 16.9" style="enable-background:new 0 0 16.9 16.9;"
	 xml:space="preserve">
<style type="text/css">
	.st0{fill:none;stroke:#000000;stroke-linecap:round;stroke-linejoin:round;stroke-miterlimit:10;}
</style>
<defs>
</defs>
<path class="st0" d="M5.8,6l0.7-1.1c0.2-0.3,0.2-0.8,0-1.1L4.4,0.5L1.9,1.3c-1,0.3-1.6,1.4-1.3,2.5c0.6,1.8,1.9,4.7,4.9,7.6
	c3,3,5.8,4.3,7.6,4.9c1,0.3,2.1-0.3,2.5-1.3l0.8-2.5l-3.3-2.1c-0.3-0.2-0.8-0.2-1.1,0l-1.1,0.7c-0.3,0.2-0.7,0.2-1.1,0
	c-0.5-0.3-1.4-0.9-2.3-1.8C6.7,8.5,6.1,7.6,5.8,7.1C5.6,6.7,5.6,6.3,5.8,6z"/>
</svg>