<!-- Generator: Adobe Illustrator 19.0.0, SVG Export Plug-In  -->
<svg version="1.1"
	 xmlns="http://www.w3.org/2000/svg" xmlns:xlink="http://www.w3.org/1999/xlink" xmlns:a="http://ns.adobe.com/AdobeSVGViewerExtensions/3.0/"
	 x="0px" y="0px" width="19px" height="19px" viewBox="0 0 19 19" style="enable-background:new 0 0 19 19;" xml:space="preserve">
<style type="text/css">
	.st0{fill:none;stroke:#000000;stroke-linecap:round;stroke-linejoin:round;stroke-miterlimit:10;}
</style>
<defs>
</defs>
<circle class="st0" cx="9.5" cy="9.5" r="9"/>
<ellipse class="st0" cx="9.5" cy="9.5" rx="9" ry="5"/>
<ellipse class="st0" cx="9.5" cy="9.5" rx="5" ry="9"/>
<line class="st0" x1="0.5" y1="9.5" x2="18.5" y2="9.5"/>
<line class="st0" x1="9.5" y1="0.5" x2="9.5" y2="18.5"/>
</svg>