<svg xmlns="http://www.w3.org/2000/svg" xmlns:xlink="http://www.w3.org/1999/xlink" preserveAspectRatio="xMidYMid" width="28.25" height="20" viewBox="0 0 28.25 20">
  <defs>
    <style>
      .cls-1 {
        fill: #666;
        fill-rule: evenodd;
      }
    </style>
  </defs>
  <path d="M26.122,19.996 L2.145,19.996 C0.969,19.996 0.012,19.034 0.012,17.851 L0.012,8.816 L0.012,4.148 L0.012,2.145 C0.012,0.962 0.969,0.001 2.145,0.001 L26.122,0.001 C27.297,0.001 28.254,0.962 28.254,2.145 L28.254,4.148 L28.254,8.816 L28.254,17.851 C28.254,19.034 27.297,19.996 26.122,19.996 ZM27.082,2.145 C27.082,1.612 26.652,1.179 26.122,1.179 L2.145,1.179 C1.615,1.179 1.184,1.612 1.184,2.145 L1.184,3.559 L27.082,3.559 L27.082,2.145 ZM27.082,4.737 L1.184,4.737 L1.184,8.227 L27.082,8.227 L27.082,4.737 ZM27.082,9.405 L1.184,9.405 L1.184,17.851 C1.184,18.384 1.615,18.817 2.145,18.817 L26.122,18.817 C26.652,18.817 27.082,18.384 27.082,17.851 L27.082,9.405 ZM22.952,15.318 L15.857,15.318 C15.533,15.318 15.271,15.054 15.271,14.728 C15.271,14.403 15.533,14.139 15.857,14.139 L22.952,14.139 C23.276,14.139 23.538,14.403 23.538,14.728 C23.538,15.054 23.276,15.318 22.952,15.318 Z" class="cls-1"/>
</svg>
